{
  "$schema": "https://turbo.build/schema.json",
  "globalDependencies": ["**/.env.*local"],
  "pipeline": {
    "build": {
      "dependsOn": ["^build"],
      "outputs": ["dist/**/*"]
    },
    "build:watch": {},
    "lint": {},
    "dev": {
      "cache": false,
      "persistent": true
    }
  }
}
